{
  "stats": {
    "suites": 1,
    "tests": 1,
    "passes": 1,
    "pending": 0,
    "failures": 0,
    "start": "2020-10-25T14:47:03.993Z",
    "end": "2020-10-25T14:47:07.338Z",
    "duration": 3345,
    "testsRegistered": 4,
    "passPercent": 25,
    "pendingPercent": 0,
    "other": 0,
    "hasOther": false,
    "skipped": 3,
    "hasSkipped": true
  },
  "results": [
    {
      "uuid": "bb81fde3-8daa-4696-b928-950b3d6b1f74",
      "title": "",
      "fullFile": "cypress\\integration\\AsisimAutomation\\tests\\LoginTest.js",
      "file": "cypress\\integration\\AsisimAutomation\\tests\\LoginTest.js",
      "beforeHooks": [],
      "afterHooks": [],
      "tests": [],
      "suites": [
        {
          "uuid": "53624f17-49d4-40bb-99ba-07e4206429cd",
          "title": "Login",
          "fullFile": "",
          "file": "",
          "beforeHooks": [],
          "afterHooks": [],
          "tests": [
            {
              "title": "Sign in as manager",
              "fullTitle": "Login Sign in as manager",
              "timedOut": null,
              "duration": 1267,
              "state": "passed",
              "speed": "slow",
              "pass": true,
              "fail": false,
              "pending": false,
              "context": null,
              "code": "cy.login('manager', 'manager');",
              "err": {},
              "uuid": "21ab73cc-05ea-4c66-855f-6c44cffb3fad",
              "parentUUID": "53624f17-49d4-40bb-99ba-07e4206429cd",
              "isHook": false,
              "skipped": false
            },
            {
              "title": "Sign in as clerk",
              "fullTitle": "Login Sign in as clerk",
              "timedOut": null,
              "duration": 0,
              "state": "skipped",
              "speed": null,
              "pass": false,
              "fail": false,
              "pending": false,
              "context": null,
              "code": "cy.login('clerk', 'clerk');",
              "err": {},
              "uuid": "5565e316-9fc2-4593-ab99-da231eacdc24",
              "parentUUID": "53624f17-49d4-40bb-99ba-07e4206429cd",
              "isHook": false,
              "skipped": true
            },
            {
              "title": "Sign in as developer",
              "fullTitle": "Login Sign in as developer",
              "timedOut": null,
              "duration": 0,
              "state": "skipped",
              "speed": null,
              "pass": false,
              "fail": false,
              "pending": false,
              "context": null,
              "code": "cy.login('developer', 'developer');",
              "err": {},
              "uuid": "1687e691-9f75-45cd-ab90-4bf45eb0625f",
              "parentUUID": "53624f17-49d4-40bb-99ba-07e4206429cd",
              "isHook": false,
              "skipped": true
            },
            {
              "title": "Negative Testing",
              "fullTitle": "Login Negative Testing",
              "timedOut": null,
              "duration": 0,
              "state": "skipped",
              "speed": null,
              "pass": false,
              "fail": false,
              "pending": false,
              "context": null,
              "code": "negData.loginData.forEach(function (value) {\n  if (value.username) {\n    login.enterUsername(value.username);\n  }\n  if (value.password) {\n    login.enterPassword(value.password);\n  }\n  login.clickLoginButton();\n  login.clearFields();\n  login.mainPageElementShouldNotExist();\n});",
              "err": {},
              "uuid": "2eb15797-9bb3-4a31-b2ec-d78d8a802655",
              "parentUUID": "53624f17-49d4-40bb-99ba-07e4206429cd",
              "isHook": false,
              "skipped": true
            }
          ],
          "suites": [],
          "passes": [
            "21ab73cc-05ea-4c66-855f-6c44cffb3fad"
          ],
          "failures": [],
          "pending": [],
          "skipped": [
            "5565e316-9fc2-4593-ab99-da231eacdc24",
            "1687e691-9f75-45cd-ab90-4bf45eb0625f",
            "2eb15797-9bb3-4a31-b2ec-d78d8a802655"
          ],
          "duration": 1267,
          "root": false,
          "rootEmpty": false,
          "_timeout": 2000
        }
      ],
      "passes": [],
      "failures": [],
      "pending": [],
      "skipped": [],
      "duration": 0,
      "root": true,
      "rootEmpty": true,
      "_timeout": 2000
    }
  ],
  "meta": {
    "mocha": {
      "version": "7.0.1"
    },
    "mochawesome": {
      "options": {
        "quiet": true,
        "reportFilename": "mochawesome",
        "saveHtml": false,
        "saveJson": true,
        "consoleReporter": "spec",
        "useInlineDiffs": false,
        "code": true
      },
      "version": "6.1.1"
    },
    "marge": {
      "options": {
        "id": "default",
        "reportDir": "cypress/reports/mocha",
        "quiet": true,
        "overwrite": false,
        "html": false,
        "json": true
      },
      "version": "5.1.0"
    }
  }
}